module distribution-system-be

go 1.16

require (
	github.com/astaxie/beego v1.12.1
	github.com/denisenkom/go-mssqldb v0.9.0 // indirect
	github.com/dgrijalva/jwt-go v3.2.0+incompatible
	github.com/elazarl/goproxy v0.0.0-20210110162100-a92cc753f88e // indirect
	github.com/erikstmartin/go-testdb v0.0.0-20160219214506-8d10e4a1bae5 // indirect
	github.com/gin-contrib/cors v1.3.0
	github.com/gin-gonic/gin v1.4.0
	github.com/go-sql-driver/mysql v1.5.0 // indirect
	github.com/golang/protobuf v1.3.2 // indirect
	github.com/jinzhu/gorm v1.9.2-0.20180922115911-f6260a008529
	github.com/jinzhu/inflection v0.0.0-20180308033659-04140366298a // indirect
	github.com/jinzhu/now v1.1.2 // indirect
	github.com/leekchan/accounting v1.0.0
	github.com/lib/pq v1.7.0 // indirect
	github.com/mergermarket/go-pkcs7 v0.0.0-20170926155232-153b18ea13c9
	github.com/parnurzeal/gorequest v0.2.16
	github.com/shiena/ansicolor v0.0.0-20200904210342-c7312218db18 // indirect
	github.com/signintech/gopdf v0.9.15
	github.com/smartystreets/goconvey v1.6.4
	github.com/ugorji/go v1.2.4 // indirect
	golang.org/x/sys v0.0.0-20191005200804-aed5e4c7ecf9 // indirect
	golang.org/x/text v0.3.2 // indirect
	gopkg.in/yaml.v2 v2.3.0 // indirect
	moul.io/http2curl v1.0.0 // indirect
)
